[36m

-------------------------------------------------------------------------------------
     _______. _______ .______       _______ .__   __.  __  .___________.____    ____ 
    /       ||   ____||   _  \     |   ____||  \ |  | |  | |           |\   \  /   / 
   |   (----`|  |__   |  |_)  |    |  |__   |   \|  | |  | `---|  |----` \   \/   /  
    \   \    |   __|  |      /     |   __|  |  . `  | |  |     |  |       \_    _/   
.----)   |   |  |____ |  |\  \----.|  |____ |  |\   | |  |     |  |         |  |     
|_______/    |_______|| _| `._____||_______||__| \__| |__|     |__|         |__|    
                                                                                     
 News and tutorials at http://www.serenity-bdd.info                                  
 Documentation at https://wakaleo.gitbooks.io/the-serenity-book/content/             
 Join the Serenity Community on Rocket Chat at https://serenity-bdd.rocket.chat      
 Serenity BDD Support and Training at http://serenity-bdd.info/#/trainingandsupport  
 Learn Serenity BDD online at http://serenity-dojo.com                               
-------------------------------------------------------------------------------------
[0m
Test Suite Started: Login into Weekly Cash Balancing Application
Test Suite Started: Log off from Weekly Cash Balancing Application

 _____ _____ ____ _____   ____ _____  _    ____ _____ _____ ____  
|_   _| ____/ ___|_   _| / ___|_   _|/ \  |  _ \_   _| ____|  _ \ 
  | | |  _| \___ \ | |   \___ \ | | / _ \ | |_) || | |  _| | | | |
  | | | |___ ___) || |    ___) || |/ ___ \|  _ < | | | |___| |_| |
  |_| |_____|____/ |_|   |____/ |_/_/   \_\_| \_\|_| |_____|____/ 
                                                                  

TEST STARTED: To verify that user is able to login into weekly cash balancing application
-------------------------------------------------------------------(login-into-weekly-cash-balancing-application;to-verify-that-user-is-able-to-login-into-weekly-cash-balancing-application)
Replaced standard System.out and System.err PrintStreams with SLF4JPrintStreams
Redirected System.out and System.err to SLF4J for this context
Exporting webdriver.chrome.driver as C:\Users\cogmahtiwari\.m2\repository\webdriver\chromedriver\win32\75.0.3770.90\chromedriver.exe
User on "Log on to Weekly Cash Balancing" screen
Current version of application : Version 2.1
User on "Select Branch" screen
Branch selected as : Oxford Street
User on "Welcome to Weekly Cash Balancing" screen

        __    _____ _____ ____ _____   ____   _    ____  ____  _____ ____  
  _     \ \  |_   _| ____/ ___|_   _| |  _ \ / \  / ___|/ ___|| ____|  _ \ 
 (_)_____| |   | | |  _| \___ \ | |   | |_) / _ \ \___ \\___ \|  _| | | | |
  _|_____| |   | | | |___ ___) || |   |  __/ ___ \ ___) |___) | |___| |_| |
 (_)     | |   |_| |_____|____/ |_|   |_| /_/   \_\____/|____/|_____|____/ 
        /_/                                                                

TEST PASSED: To verify that user is able to login into weekly cash balancing application
----------------------------------------------------------------------------

        __    _____ _____ ____ _____   ____   _    ____  ____  _____ ____  
  _     \ \  |_   _| ____/ ___|_   _| |  _ \ / \  / ___|/ ___|| ____|  _ \ 
 (_)_____| |   | | |  _| \___ \ | |   | |_) / _ \ \___ \\___ \|  _| | | | |
  _|_____| |   | | | |___ ___) || |   |  __/ ___ \ ___) |___) | |___| |_| |
 (_)     | |   |_| |_____|____/ |_|   |_| /_/   \_\____/|____/|_____|____/ 
        /_/                                                                

TEST PASSED: To verify that user is able to login into weekly cash balancing application
----------------------------------------------------------------------------

 _____ _____ ____ _____   ____ _____  _    ____ _____ _____ ____  
|_   _| ____/ ___|_   _| / ___|_   _|/ \  |  _ \_   _| ____|  _ \ 
  | | |  _| \___ \ | |   \___ \ | | / _ \ | |_) || | |  _| | | | |
  | | | |___ ___) || |    ___) || |/ ___ \|  _ < | | | |___| |_| |
  |_| |_____|____/ |_|   |____/ |_/_/   \_\_| \_\|_| |_____|____/ 
                                                                  

TEST STARTED: To verify that user is able to log off from weekly cash balancing application
-------------------------------------------------------------------(log-off-from-weekly-cash-balancing-application;to-verify-that-user-is-able-to-log-off-from-weekly-cash-balancing-application)
Branch has changed to : Peter Jones
User on "Welcome to Weekly Cash Balancing" screen
User currently on "Welcome to Weekly Cash Balancing"
User on "Weekly Cash Balancing Help" Screen

           __  _____ _____ ____ _____   _____ _    ___ _     _____ ____  
  _       / / |_   _| ____/ ___|_   _| |  ___/ \  |_ _| |   | ____|  _ \ 
 (_)_____| |    | | |  _| \___ \ | |   | |_ / _ \  | || |   |  _| | | | |
  _|_____| |    | | | |___ ___) || |   |  _/ ___ \ | || |___| |___| |_| |
 (_)     | |    |_| |_____|____/ |_|   |_|/_/   \_\___|_____|_____|____/ 
          \_\                                                            

TEST FAILED WITH ERROR: To verify that user is able to log off from weekly cash balancing application
---------------------------------------------------------------------
TEST FAILED AT STEP Menu CTRL click: [Enter Daily WCB Totals, Enter Other Tenders, View and Submit Weekly Totals, Maintain Registers and Sections, View Audit Trail, Submit Progress Tracker]
The following error occurred: sendKeysToActiveElement

           __  _____ _____ ____ _____   _____ _    ___ _     _____ ____  
  _       / / |_   _| ____/ ___|_   _| |  ___/ \  |_ _| |   | ____|  _ \ 
 (_)_____| |    | | |  _| \___ \ | |   | |_ / _ \  | || |   |  _| | | | |
  _|_____| |    | | | |___ ___) || |   |  _/ ___ \ | || |___| |___| |_| |
 (_)     | |    |_| |_____|____/ |_|   |_|/_/   \_\___|_____|_____|____/ 
          \_\                                                            

TEST FAILED WITH ERROR: To verify that user is able to log off from weekly cash balancing application
---------------------------------------------------------------------
TEST FAILED AT STEP Menu CTRL click: [Enter Daily WCB Totals, Enter Other Tenders, View and Submit Weekly Totals, Maintain Registers and Sections, View Audit Trail, Submit Progress Tracker]
The following error occurred: sendKeysToActiveElement
